<?xml version = "1.0" encoding = "UTF-8" ?>
<!DOCTYPE eagle SYSTEM "eagle.dtd">
<eagle>
  <drawing>
    <board>
      <libraries>
        <library name = "holes">
          <packages>
            <package name = "3,0">
              <description>&lt;b&gt;MOUNTING HOLE&lt;/b&gt; 3.0 mm with drill center</description>
              <wire x1 = "-2.159" y1 = "0" x2 = "0" y2 = "-2.159" width = "2.4892" layer = "51" curve = "90" cap = "flat" />
              <wire x1 = "0" y1 = "2.159" x2 = "2.159" y2 = "0" width = "2.4892" layer = "51" curve = "-90" cap = "flat" />
              <circle x = "0" y = "0" radius = "0.762" width = "0.4572" layer = "51" />
              <circle x = "0" y = "0" radius = "3.429" width = "0.1524" layer = "21" />
              <circle x = "0" y = "0" radius = "1.6" width = "2.032" layer = "21" />
              <circle x = "0" y = "0" radius = "3.048" width = "2.032" layer = "39" />
              <circle x = "0" y = "0" radius = "3.048" width = "2.032" layer = "40" />
              <circle x = "0" y = "0" radius = "3.048" width = "2.032" layer = "41" />
              <circle x = "0" y = "0" radius = "3.048" width = "2.032" layer = "42" />
              <circle x = "0" y = "0" radius = "3.048" width = "2.032" layer = "43" />
              <text x = "-1.27" y = "-3.81" size = "1.27" layer = "48">3,0</text>
            </package>
          </packages>
        </library>
      </libraries>
      <elements>
        <element name = "H1" library = "holes" package = "3,0" value = "MOUNT-HOLE3.0" x = "23" y = "12" />
        <element name = "H2" library = "holes" package = "3,0" value = "MOUNT-HOLE3.0" x = "-23" y = "12" />
        <element name = "H3" library = "holes" package = "3,0" value = "MOUNT-HOLE3.0" x = "23" y = "-12" />
        <element name = "H4" library = "holes" package = "3,0" value = "MOUNT-HOLE3.0" x = "-23" y = "-12" />
      </elements>
      <signals>
        <signal name = "N$1">
          <via x = "-13.97" y = "8.89" extent = "1-16" drill = "1.2" diameter = "1.9304" />
          <via x = "-11.43" y = "8.89" extent = "1-16" drill = "1.2" diameter = "1.9304" />
          <wire x1 = "-11.43" y1 = "8.89" x2 = "-13.969999999999999" y2 = "8.89" width = "0.4064" layer = "16" />
          <via x = "-8.89" y = "8.89" extent = "1-16" drill = "1.2" diameter = "1.9304" />
          <wire x1 = "-8.89" y1 = "8.89" x2 = "-11.43" y2 = "8.89" width = "0.4064" layer = "16" />
          <via x = "-6.3500000000000005" y = "8.89" extent = "1-16" drill = "1.2" diameter = "1.9304" />
          <wire x1 = "-6.3500000000000005" y1 = "8.89" x2 = "-8.89" y2 = "8.89" width = "0.4064" layer = "16" />
          <via x = "-3.8100000000000005" y = "8.89" extent = "1-16" drill = "1.2" diameter = "1.9304" />
          <wire x1 = "-3.8100000000000005" y1 = "8.89" x2 = "-6.3500000000000005" y2 = "8.89" width = "0.4064" layer = "16" />
        </signal>
        <signal name = "N$2">
          <via x = "13.97" y = "8.89" extent = "1-16" drill = "1.2" diameter = "1.9304" />
          <via x = "11.43" y = "8.89" extent = "1-16" drill = "1.2" diameter = "1.9304" />
          <wire x1 = "11.43" y1 = "8.89" x2 = "13.969999999999999" y2 = "8.89" width = "0.4064" layer = "16" />
          <via x = "8.89" y = "8.89" extent = "1-16" drill = "1.2" diameter = "1.9304" />
          <wire x1 = "8.89" y1 = "8.89" x2 = "11.43" y2 = "8.89" width = "0.4064" layer = "16" />
          <via x = "6.3500000000000005" y = "8.89" extent = "1-16" drill = "1.2" diameter = "1.9304" />
          <wire x1 = "6.3500000000000005" y1 = "8.89" x2 = "8.89" y2 = "8.89" width = "0.4064" layer = "16" />
          <via x = "3.8100000000000005" y = "8.89" extent = "1-16" drill = "1.2" diameter = "1.9304" />
          <wire x1 = "3.8100000000000005" y1 = "8.89" x2 = "6.3500000000000005" y2 = "8.89" width = "0.4064" layer = "16" />
        </signal>
        <signal name = "N$3">
          <via x = "-13.97" y = "6.3500000000000005" extent = "1-16" drill = "1.2" diameter = "1.9304" />
          <via x = "-11.43" y = "6.3500000000000005" extent = "1-16" drill = "1.2" diameter = "1.9304" />
          <wire x1 = "-11.43" y1 = "6.3500000000000005" x2 = "-13.969999999999999" y2 = "6.3500000000000005" width = "0.4064" layer = "16" />
          <via x = "-8.89" y = "6.3500000000000005" extent = "1-16" drill = "1.2" diameter = "1.9304" />
          <wire x1 = "-8.89" y1 = "6.3500000000000005" x2 = "-11.43" y2 = "6.3500000000000005" width = "0.4064" layer = "16" />
          <via x = "-6.3500000000000005" y = "6.3500000000000005" extent = "1-16" drill = "1.2" diameter = "1.9304" />
          <wire x1 = "-6.3500000000000005" y1 = "6.3500000000000005" x2 = "-8.89" y2 = "6.3500000000000005" width = "0.4064" layer = "16" />
          <via x = "-3.8100000000000005" y = "6.3500000000000005" extent = "1-16" drill = "1.2" diameter = "1.9304" />
          <wire x1 = "-3.8100000000000005" y1 = "6.3500000000000005" x2 = "-6.3500000000000005" y2 = "6.3500000000000005" width = "0.4064" layer = "16" />
        </signal>
        <signal name = "N$4">
          <via x = "13.97" y = "6.3500000000000005" extent = "1-16" drill = "1.2" diameter = "1.9304" />
          <via x = "11.43" y = "6.3500000000000005" extent = "1-16" drill = "1.2" diameter = "1.9304" />
          <wire x1 = "11.43" y1 = "6.3500000000000005" x2 = "13.969999999999999" y2 = "6.3500000000000005" width = "0.4064" layer = "16" />
          <via x = "8.89" y = "6.3500000000000005" extent = "1-16" drill = "1.2" diameter = "1.9304" />
          <wire x1 = "8.89" y1 = "6.3500000000000005" x2 = "11.43" y2 = "6.3500000000000005" width = "0.4064" layer = "16" />
          <via x = "6.3500000000000005" y = "6.3500000000000005" extent = "1-16" drill = "1.2" diameter = "1.9304" />
          <wire x1 = "6.3500000000000005" y1 = "6.3500000000000005" x2 = "8.89" y2 = "6.3500000000000005" width = "0.4064" layer = "16" />
          <via x = "3.8100000000000005" y = "6.3500000000000005" extent = "1-16" drill = "1.2" diameter = "1.9304" />
          <wire x1 = "3.8100000000000005" y1 = "6.3500000000000005" x2 = "6.3500000000000005" y2 = "6.3500000000000005" width = "0.4064" layer = "16" />
        </signal>
        <signal name = "N$5">
          <via x = "-13.97" y = "3.8100000000000005" extent = "1-16" drill = "1.2" diameter = "1.9304" />
          <via x = "-11.43" y = "3.8100000000000005" extent = "1-16" drill = "1.2" diameter = "1.9304" />
          <wire x1 = "-11.43" y1 = "3.8100000000000005" x2 = "-13.969999999999999" y2 = "3.8100000000000005" width = "0.4064" layer = "16" />
          <via x = "-8.89" y = "3.8100000000000005" extent = "1-16" drill = "1.2" diameter = "1.9304" />
          <wire x1 = "-8.89" y1 = "3.8100000000000005" x2 = "-11.43" y2 = "3.8100000000000005" width = "0.4064" layer = "16" />
          <via x = "-6.3500000000000005" y = "3.8100000000000005" extent = "1-16" drill = "1.2" diameter = "1.9304" />
          <wire x1 = "-6.3500000000000005" y1 = "3.8100000000000005" x2 = "-8.89" y2 = "3.8100000000000005" width = "0.4064" layer = "16" />
          <via x = "-3.8100000000000005" y = "3.8100000000000005" extent = "1-16" drill = "1.2" diameter = "1.9304" />
          <wire x1 = "-3.8100000000000005" y1 = "3.8100000000000005" x2 = "-6.3500000000000005" y2 = "3.8100000000000005" width = "0.4064" layer = "16" />
        </signal>
        <signal name = "N$6">
          <via x = "13.97" y = "3.8100000000000005" extent = "1-16" drill = "1.2" diameter = "1.9304" />
          <via x = "11.43" y = "3.8100000000000005" extent = "1-16" drill = "1.2" diameter = "1.9304" />
          <wire x1 = "11.43" y1 = "3.8100000000000005" x2 = "13.969999999999999" y2 = "3.8100000000000005" width = "0.4064" layer = "16" />
          <via x = "8.89" y = "3.8100000000000005" extent = "1-16" drill = "1.2" diameter = "1.9304" />
          <wire x1 = "8.89" y1 = "3.8100000000000005" x2 = "11.43" y2 = "3.8100000000000005" width = "0.4064" layer = "16" />
          <via x = "6.3500000000000005" y = "3.8100000000000005" extent = "1-16" drill = "1.2" diameter = "1.9304" />
          <wire x1 = "6.3500000000000005" y1 = "3.8100000000000005" x2 = "8.89" y2 = "3.8100000000000005" width = "0.4064" layer = "16" />
          <via x = "3.8100000000000005" y = "3.8100000000000005" extent = "1-16" drill = "1.2" diameter = "1.9304" />
          <wire x1 = "3.8100000000000005" y1 = "3.8100000000000005" x2 = "6.3500000000000005" y2 = "3.8100000000000005" width = "0.4064" layer = "16" />
        </signal>
        <signal name = "N$7">
          <via x = "-13.97" y = "1.2700000000000005" extent = "1-16" drill = "1.2" diameter = "1.9304" />
          <via x = "-11.43" y = "1.2700000000000005" extent = "1-16" drill = "1.2" diameter = "1.9304" />
          <wire x1 = "-11.43" y1 = "1.2700000000000005" x2 = "-13.969999999999999" y2 = "1.2700000000000005" width = "0.4064" layer = "16" />
          <via x = "-8.89" y = "1.2700000000000005" extent = "1-16" drill = "1.2" diameter = "1.9304" />
          <wire x1 = "-8.89" y1 = "1.2700000000000005" x2 = "-11.43" y2 = "1.2700000000000005" width = "0.4064" layer = "16" />
          <via x = "-6.3500000000000005" y = "1.2700000000000005" extent = "1-16" drill = "1.2" diameter = "1.9304" />
          <wire x1 = "-6.3500000000000005" y1 = "1.2700000000000005" x2 = "-8.89" y2 = "1.2700000000000005" width = "0.4064" layer = "16" />
          <via x = "-3.8100000000000005" y = "1.2700000000000005" extent = "1-16" drill = "1.2" diameter = "1.9304" />
          <wire x1 = "-3.8100000000000005" y1 = "1.2700000000000005" x2 = "-6.3500000000000005" y2 = "1.2700000000000005" width = "0.4064" layer = "16" />
        </signal>
        <signal name = "N$8">
          <via x = "13.97" y = "1.2700000000000005" extent = "1-16" drill = "1.2" diameter = "1.9304" />
          <via x = "11.43" y = "1.2700000000000005" extent = "1-16" drill = "1.2" diameter = "1.9304" />
          <wire x1 = "11.43" y1 = "1.2700000000000005" x2 = "13.969999999999999" y2 = "1.2700000000000005" width = "0.4064" layer = "16" />
          <via x = "8.89" y = "1.2700000000000005" extent = "1-16" drill = "1.2" diameter = "1.9304" />
          <wire x1 = "8.89" y1 = "1.2700000000000005" x2 = "11.43" y2 = "1.2700000000000005" width = "0.4064" layer = "16" />
          <via x = "6.3500000000000005" y = "1.2700000000000005" extent = "1-16" drill = "1.2" diameter = "1.9304" />
          <wire x1 = "6.3500000000000005" y1 = "1.2700000000000005" x2 = "8.89" y2 = "1.2700000000000005" width = "0.4064" layer = "16" />
          <via x = "3.8100000000000005" y = "1.2700000000000005" extent = "1-16" drill = "1.2" diameter = "1.9304" />
          <wire x1 = "3.8100000000000005" y1 = "1.2700000000000005" x2 = "6.3500000000000005" y2 = "1.2700000000000005" width = "0.4064" layer = "16" />
        </signal>
        <signal name = "N$9">
          <via x = "-13.97" y = "-1.2699999999999996" extent = "1-16" drill = "1.2" diameter = "1.9304" />
          <via x = "-11.43" y = "-1.2699999999999996" extent = "1-16" drill = "1.2" diameter = "1.9304" />
          <wire x1 = "-11.43" y1 = "-1.2699999999999996" x2 = "-13.969999999999999" y2 = "-1.2699999999999996" width = "0.4064" layer = "16" />
          <via x = "-8.89" y = "-1.2699999999999996" extent = "1-16" drill = "1.2" diameter = "1.9304" />
          <wire x1 = "-8.89" y1 = "-1.2699999999999996" x2 = "-11.43" y2 = "-1.2699999999999996" width = "0.4064" layer = "16" />
          <via x = "-6.3500000000000005" y = "-1.2699999999999996" extent = "1-16" drill = "1.2" diameter = "1.9304" />
          <wire x1 = "-6.3500000000000005" y1 = "-1.2699999999999996" x2 = "-8.89" y2 = "-1.2699999999999996" width = "0.4064" layer = "16" />
          <via x = "-3.8100000000000005" y = "-1.2699999999999996" extent = "1-16" drill = "1.2" diameter = "1.9304" />
          <wire x1 = "-3.8100000000000005" y1 = "-1.2699999999999996" x2 = "-6.3500000000000005" y2 = "-1.2699999999999996" width = "0.4064" layer = "16" />
        </signal>
        <signal name = "N$10">
          <via x = "13.97" y = "-1.2699999999999996" extent = "1-16" drill = "1.2" diameter = "1.9304" />
          <via x = "11.43" y = "-1.2699999999999996" extent = "1-16" drill = "1.2" diameter = "1.9304" />
          <wire x1 = "11.43" y1 = "-1.2699999999999996" x2 = "13.969999999999999" y2 = "-1.2699999999999996" width = "0.4064" layer = "16" />
          <via x = "8.89" y = "-1.2699999999999996" extent = "1-16" drill = "1.2" diameter = "1.9304" />
          <wire x1 = "8.89" y1 = "-1.2699999999999996" x2 = "11.43" y2 = "-1.2699999999999996" width = "0.4064" layer = "16" />
          <via x = "6.3500000000000005" y = "-1.2699999999999996" extent = "1-16" drill = "1.2" diameter = "1.9304" />
          <wire x1 = "6.3500000000000005" y1 = "-1.2699999999999996" x2 = "8.89" y2 = "-1.2699999999999996" width = "0.4064" layer = "16" />
          <via x = "3.8100000000000005" y = "-1.2699999999999996" extent = "1-16" drill = "1.2" diameter = "1.9304" />
          <wire x1 = "3.8100000000000005" y1 = "-1.2699999999999996" x2 = "6.3500000000000005" y2 = "-1.2699999999999996" width = "0.4064" layer = "16" />
        </signal>
        <signal name = "N$11">
          <via x = "-13.97" y = "-3.8099999999999996" extent = "1-16" drill = "1.2" diameter = "1.9304" />
          <via x = "-11.43" y = "-3.8099999999999996" extent = "1-16" drill = "1.2" diameter = "1.9304" />
          <wire x1 = "-11.43" y1 = "-3.8099999999999996" x2 = "-13.969999999999999" y2 = "-3.8099999999999996" width = "0.4064" layer = "16" />
          <via x = "-8.89" y = "-3.8099999999999996" extent = "1-16" drill = "1.2" diameter = "1.9304" />
          <wire x1 = "-8.89" y1 = "-3.8099999999999996" x2 = "-11.43" y2 = "-3.8099999999999996" width = "0.4064" layer = "16" />
          <via x = "-6.3500000000000005" y = "-3.8099999999999996" extent = "1-16" drill = "1.2" diameter = "1.9304" />
          <wire x1 = "-6.3500000000000005" y1 = "-3.8099999999999996" x2 = "-8.89" y2 = "-3.8099999999999996" width = "0.4064" layer = "16" />
          <via x = "-3.8100000000000005" y = "-3.8099999999999996" extent = "1-16" drill = "1.2" diameter = "1.9304" />
          <wire x1 = "-3.8100000000000005" y1 = "-3.8099999999999996" x2 = "-6.3500000000000005" y2 = "-3.8099999999999996" width = "0.4064" layer = "16" />
        </signal>
        <signal name = "N$12">
          <via x = "13.97" y = "-3.8099999999999996" extent = "1-16" drill = "1.2" diameter = "1.9304" />
          <via x = "11.43" y = "-3.8099999999999996" extent = "1-16" drill = "1.2" diameter = "1.9304" />
          <wire x1 = "11.43" y1 = "-3.8099999999999996" x2 = "13.969999999999999" y2 = "-3.8099999999999996" width = "0.4064" layer = "16" />
          <via x = "8.89" y = "-3.8099999999999996" extent = "1-16" drill = "1.2" diameter = "1.9304" />
          <wire x1 = "8.89" y1 = "-3.8099999999999996" x2 = "11.43" y2 = "-3.8099999999999996" width = "0.4064" layer = "16" />
          <via x = "6.3500000000000005" y = "-3.8099999999999996" extent = "1-16" drill = "1.2" diameter = "1.9304" />
          <wire x1 = "6.3500000000000005" y1 = "-3.8099999999999996" x2 = "8.89" y2 = "-3.8099999999999996" width = "0.4064" layer = "16" />
          <via x = "3.8100000000000005" y = "-3.8099999999999996" extent = "1-16" drill = "1.2" diameter = "1.9304" />
          <wire x1 = "3.8100000000000005" y1 = "-3.8099999999999996" x2 = "6.3500000000000005" y2 = "-3.8099999999999996" width = "0.4064" layer = "16" />
        </signal>
        <signal name = "N$13">
          <via x = "-13.97" y = "-6.35" extent = "1-16" drill = "1.2" diameter = "1.9304" />
          <via x = "-11.43" y = "-6.35" extent = "1-16" drill = "1.2" diameter = "1.9304" />
          <wire x1 = "-11.43" y1 = "-6.35" x2 = "-13.969999999999999" y2 = "-6.35" width = "0.4064" layer = "16" />
          <via x = "-8.89" y = "-6.35" extent = "1-16" drill = "1.2" diameter = "1.9304" />
          <wire x1 = "-8.89" y1 = "-6.35" x2 = "-11.43" y2 = "-6.35" width = "0.4064" layer = "16" />
          <via x = "-6.3500000000000005" y = "-6.35" extent = "1-16" drill = "1.2" diameter = "1.9304" />
          <wire x1 = "-6.3500000000000005" y1 = "-6.35" x2 = "-8.89" y2 = "-6.35" width = "0.4064" layer = "16" />
          <via x = "-3.8100000000000005" y = "-6.35" extent = "1-16" drill = "1.2" diameter = "1.9304" />
          <wire x1 = "-3.8100000000000005" y1 = "-6.35" x2 = "-6.3500000000000005" y2 = "-6.35" width = "0.4064" layer = "16" />
        </signal>
        <signal name = "N$14">
          <via x = "13.97" y = "-6.35" extent = "1-16" drill = "1.2" diameter = "1.9304" />
          <via x = "11.43" y = "-6.35" extent = "1-16" drill = "1.2" diameter = "1.9304" />
          <wire x1 = "11.43" y1 = "-6.35" x2 = "13.969999999999999" y2 = "-6.35" width = "0.4064" layer = "16" />
          <via x = "8.89" y = "-6.35" extent = "1-16" drill = "1.2" diameter = "1.9304" />
          <wire x1 = "8.89" y1 = "-6.35" x2 = "11.43" y2 = "-6.35" width = "0.4064" layer = "16" />
          <via x = "6.3500000000000005" y = "-6.35" extent = "1-16" drill = "1.2" diameter = "1.9304" />
          <wire x1 = "6.3500000000000005" y1 = "-6.35" x2 = "8.89" y2 = "-6.35" width = "0.4064" layer = "16" />
          <via x = "3.8100000000000005" y = "-6.35" extent = "1-16" drill = "1.2" diameter = "1.9304" />
          <wire x1 = "3.8100000000000005" y1 = "-6.35" x2 = "6.3500000000000005" y2 = "-6.35" width = "0.4064" layer = "16" />
        </signal>
        <signal name = "N$15">
          <via x = "-13.97" y = "-8.89" extent = "1-16" drill = "1.2" diameter = "1.9304" />
          <via x = "-11.43" y = "-8.89" extent = "1-16" drill = "1.2" diameter = "1.9304" />
          <wire x1 = "-11.43" y1 = "-8.89" x2 = "-13.969999999999999" y2 = "-8.89" width = "0.4064" layer = "16" />
          <via x = "-8.89" y = "-8.89" extent = "1-16" drill = "1.2" diameter = "1.9304" />
          <wire x1 = "-8.89" y1 = "-8.89" x2 = "-11.43" y2 = "-8.89" width = "0.4064" layer = "16" />
          <via x = "-6.3500000000000005" y = "-8.89" extent = "1-16" drill = "1.2" diameter = "1.9304" />
          <wire x1 = "-6.3500000000000005" y1 = "-8.89" x2 = "-8.89" y2 = "-8.89" width = "0.4064" layer = "16" />
          <via x = "-3.8100000000000005" y = "-8.89" extent = "1-16" drill = "1.2" diameter = "1.9304" />
          <wire x1 = "-3.8100000000000005" y1 = "-8.89" x2 = "-6.3500000000000005" y2 = "-8.89" width = "0.4064" layer = "16" />
        </signal>
        <signal name = "N$16">
          <via x = "13.97" y = "-8.89" extent = "1-16" drill = "1.2" diameter = "1.9304" />
          <via x = "11.43" y = "-8.89" extent = "1-16" drill = "1.2" diameter = "1.9304" />
          <wire x1 = "11.43" y1 = "-8.89" x2 = "13.969999999999999" y2 = "-8.89" width = "0.4064" layer = "16" />
          <via x = "8.89" y = "-8.89" extent = "1-16" drill = "1.2" diameter = "1.9304" />
          <wire x1 = "8.89" y1 = "-8.89" x2 = "11.43" y2 = "-8.89" width = "0.4064" layer = "16" />
          <via x = "6.3500000000000005" y = "-8.89" extent = "1-16" drill = "1.2" diameter = "1.9304" />
          <wire x1 = "6.3500000000000005" y1 = "-8.89" x2 = "8.89" y2 = "-8.89" width = "0.4064" layer = "16" />
          <via x = "3.8100000000000005" y = "-8.89" extent = "1-16" drill = "1.2" diameter = "1.9304" />
          <wire x1 = "3.8100000000000005" y1 = "-8.89" x2 = "6.3500000000000005" y2 = "-8.89" width = "0.4064" layer = "16" />
        </signal>
        <signal name = "N$17">
          <via x = "-13.97" y = "-11.43" extent = "1-16" drill = "1.2" diameter = "1.9304" />
          <via x = "-11.43" y = "-11.43" extent = "1-16" drill = "1.2" diameter = "1.9304" />
          <wire x1 = "-11.43" y1 = "-11.43" x2 = "-13.969999999999999" y2 = "-11.43" width = "0.4064" layer = "16" />
          <via x = "-8.89" y = "-11.43" extent = "1-16" drill = "1.2" diameter = "1.9304" />
          <wire x1 = "-8.89" y1 = "-11.43" x2 = "-11.43" y2 = "-11.43" width = "0.4064" layer = "16" />
          <via x = "-6.3500000000000005" y = "-11.43" extent = "1-16" drill = "1.2" diameter = "1.9304" />
          <wire x1 = "-6.3500000000000005" y1 = "-11.43" x2 = "-8.89" y2 = "-11.43" width = "0.4064" layer = "16" />
          <via x = "-3.8100000000000005" y = "-11.43" extent = "1-16" drill = "1.2" diameter = "1.9304" />
          <wire x1 = "-3.8100000000000005" y1 = "-11.43" x2 = "-6.3500000000000005" y2 = "-11.43" width = "0.4064" layer = "16" />
        </signal>
        <signal name = "N$18">
          <via x = "13.97" y = "-11.43" extent = "1-16" drill = "1.2" diameter = "1.9304" />
          <via x = "11.43" y = "-11.43" extent = "1-16" drill = "1.2" diameter = "1.9304" />
          <wire x1 = "11.43" y1 = "-11.43" x2 = "13.969999999999999" y2 = "-11.43" width = "0.4064" layer = "16" />
          <via x = "8.89" y = "-11.43" extent = "1-16" drill = "1.2" diameter = "1.9304" />
          <wire x1 = "8.89" y1 = "-11.43" x2 = "11.43" y2 = "-11.43" width = "0.4064" layer = "16" />
          <via x = "6.3500000000000005" y = "-11.43" extent = "1-16" drill = "1.2" diameter = "1.9304" />
          <wire x1 = "6.3500000000000005" y1 = "-11.43" x2 = "8.89" y2 = "-11.43" width = "0.4064" layer = "16" />
          <via x = "3.8100000000000005" y = "-11.43" extent = "1-16" drill = "1.2" diameter = "1.9304" />
          <wire x1 = "3.8100000000000005" y1 = "-11.43" x2 = "6.3500000000000005" y2 = "-11.43" width = "0.4064" layer = "16" />
        </signal>
        <signal name = "N$19">
          <via x = "-19.05" y = "6.35" extent = "1-16" drill = "1.2" diameter = "1.9304" />
          <via x = "-19.05" y = "3.8099999999999996" extent = "1-16" drill = "1.2" diameter = "1.9304" />
          <wire x1 = "-19.05" y1 = "3.8099999999999996" x2 = "-19.05" y2 = "6.35" width = "0.4064" layer = "16" />
          <via x = "-19.05" y = "1.2699999999999996" extent = "1-16" drill = "1.2" diameter = "1.9304" />
          <wire x1 = "-19.05" y1 = "1.2699999999999996" x2 = "-19.05" y2 = "3.8099999999999996" width = "0.4064" layer = "16" />
          <via x = "-19.05" y = "-1.2700000000000005" extent = "1-16" drill = "1.2" diameter = "1.9304" />
          <wire x1 = "-19.05" y1 = "-1.2700000000000005" x2 = "-19.05" y2 = "1.2699999999999996" width = "0.4064" layer = "16" />
          <via x = "-19.05" y = "-3.8100000000000005" extent = "1-16" drill = "1.2" diameter = "1.9304" />
          <wire x1 = "-19.05" y1 = "-3.8100000000000005" x2 = "-19.05" y2 = "-1.2700000000000005" width = "0.4064" layer = "16" />
          <via x = "-19.05" y = "-6.35" extent = "1-16" drill = "1.2" diameter = "1.9304" />
          <wire x1 = "-19.05" y1 = "-6.35" x2 = "-19.05" y2 = "-3.8099999999999996" width = "0.4064" layer = "16" />
        </signal>
        <signal name = "N$20">
          <via x = "19.05" y = "6.35" extent = "1-16" drill = "1.2" diameter = "1.9304" />
          <via x = "19.05" y = "3.8099999999999996" extent = "1-16" drill = "1.2" diameter = "1.9304" />
          <wire x1 = "19.05" y1 = "3.8099999999999996" x2 = "19.05" y2 = "6.35" width = "0.4064" layer = "16" />
          <via x = "19.05" y = "1.2699999999999996" extent = "1-16" drill = "1.2" diameter = "1.9304" />
          <wire x1 = "19.05" y1 = "1.2699999999999996" x2 = "19.05" y2 = "3.8099999999999996" width = "0.4064" layer = "16" />
          <via x = "19.05" y = "-1.2700000000000005" extent = "1-16" drill = "1.2" diameter = "1.9304" />
          <wire x1 = "19.05" y1 = "-1.2700000000000005" x2 = "19.05" y2 = "1.2699999999999996" width = "0.4064" layer = "16" />
          <via x = "19.05" y = "-3.8100000000000005" extent = "1-16" drill = "1.2" diameter = "1.9304" />
          <wire x1 = "19.05" y1 = "-3.8100000000000005" x2 = "19.05" y2 = "-1.2700000000000005" width = "0.4064" layer = "16" />
          <via x = "19.05" y = "-6.35" extent = "1-16" drill = "1.2" diameter = "1.9304" />
          <wire x1 = "19.05" y1 = "-6.35" x2 = "19.05" y2 = "-3.8099999999999996" width = "0.4064" layer = "16" />
        </signal>
        <signal name = "N$21">
          <via x = "-16.51" y = "6.35" extent = "1-16" drill = "1.2" diameter = "1.9304" />
          <via x = "-16.51" y = "3.8099999999999996" extent = "1-16" drill = "1.2" diameter = "1.9304" />
          <wire x1 = "-16.51" y1 = "3.8099999999999996" x2 = "-16.51" y2 = "6.35" width = "0.4064" layer = "16" />
          <via x = "-16.51" y = "1.2699999999999996" extent = "1-16" drill = "1.2" diameter = "1.9304" />
          <wire x1 = "-16.51" y1 = "1.2699999999999996" x2 = "-16.51" y2 = "3.8099999999999996" width = "0.4064" layer = "16" />
          <via x = "-16.51" y = "-1.2700000000000005" extent = "1-16" drill = "1.2" diameter = "1.9304" />
          <wire x1 = "-16.51" y1 = "-1.2700000000000005" x2 = "-16.51" y2 = "1.2699999999999996" width = "0.4064" layer = "16" />
          <via x = "-16.51" y = "-3.8100000000000005" extent = "1-16" drill = "1.2" diameter = "1.9304" />
          <wire x1 = "-16.51" y1 = "-3.8100000000000005" x2 = "-16.51" y2 = "-1.2700000000000005" width = "0.4064" layer = "16" />
          <via x = "-16.51" y = "-6.35" extent = "1-16" drill = "1.2" diameter = "1.9304" />
          <wire x1 = "-16.51" y1 = "-6.35" x2 = "-16.51" y2 = "-3.8099999999999996" width = "0.4064" layer = "16" />
        </signal>
        <signal name = "N$22">
          <via x = "16.51" y = "6.35" extent = "1-16" drill = "1.2" diameter = "1.9304" />
          <via x = "16.51" y = "3.8099999999999996" extent = "1-16" drill = "1.2" diameter = "1.9304" />
          <wire x1 = "16.51" y1 = "3.8099999999999996" x2 = "16.51" y2 = "6.35" width = "0.4064" layer = "16" />
          <via x = "16.51" y = "1.2699999999999996" extent = "1-16" drill = "1.2" diameter = "1.9304" />
          <wire x1 = "16.51" y1 = "1.2699999999999996" x2 = "16.51" y2 = "3.8099999999999996" width = "0.4064" layer = "16" />
          <via x = "16.51" y = "-1.2700000000000005" extent = "1-16" drill = "1.2" diameter = "1.9304" />
          <wire x1 = "16.51" y1 = "-1.2700000000000005" x2 = "16.51" y2 = "1.2699999999999996" width = "0.4064" layer = "16" />
          <via x = "16.51" y = "-3.8100000000000005" extent = "1-16" drill = "1.2" diameter = "1.9304" />
          <wire x1 = "16.51" y1 = "-3.8100000000000005" x2 = "16.51" y2 = "-1.2700000000000005" width = "0.4064" layer = "16" />
          <via x = "16.51" y = "-6.35" extent = "1-16" drill = "1.2" diameter = "1.9304" />
          <wire x1 = "16.51" y1 = "-6.35" x2 = "16.51" y2 = "-3.8099999999999996" width = "0.4064" layer = "16" />
        </signal>
        <signal name = "N$23">
          <via x = "-21.59" y = "6.35" extent = "1-16" drill = "1.2" diameter = "1.9304" />
        </signal>
        <signal name = "N$24">
          <via x = "21.59" y = "6.35" extent = "1-16" drill = "1.2" diameter = "1.9304" />
        </signal>
        <signal name = "N$25">
          <via x = "-21.59" y = "3.8099999999999996" extent = "1-16" drill = "1.2" diameter = "1.9304" />
        </signal>
        <signal name = "N$26">
          <via x = "21.59" y = "3.8099999999999996" extent = "1-16" drill = "1.2" diameter = "1.9304" />
        </signal>
        <signal name = "N$27">
          <via x = "-21.59" y = "1.2699999999999996" extent = "1-16" drill = "1.2" diameter = "1.9304" />
        </signal>
        <signal name = "N$28">
          <via x = "21.59" y = "1.2699999999999996" extent = "1-16" drill = "1.2" diameter = "1.9304" />
        </signal>
        <signal name = "N$29">
          <via x = "-21.59" y = "-1.2700000000000005" extent = "1-16" drill = "1.2" diameter = "1.9304" />
        </signal>
        <signal name = "N$30">
          <via x = "21.59" y = "-1.2700000000000005" extent = "1-16" drill = "1.2" diameter = "1.9304" />
        </signal>
        <signal name = "N$31">
          <via x = "-21.59" y = "-3.8100000000000005" extent = "1-16" drill = "1.2" diameter = "1.9304" />
        </signal>
        <signal name = "N$32">
          <via x = "21.59" y = "-3.8100000000000005" extent = "1-16" drill = "1.2" diameter = "1.9304" />
        </signal>
        <signal name = "N$33">
          <via x = "-21.59" y = "-6.35" extent = "1-16" drill = "1.2" diameter = "1.9304" />
        </signal>
        <signal name = "N$34">
          <via x = "21.59" y = "-6.35" extent = "1-16" drill = "1.2" diameter = "1.9304" />
        </signal>
        <signal name = "N$35">
          <via x = "-24.130000000000003" y = "6.35" extent = "1-16" drill = "1.2" diameter = "1.9304" />
        </signal>
        <signal name = "N$36">
          <via x = "24.130000000000003" y = "6.35" extent = "1-16" drill = "1.2" diameter = "1.9304" />
        </signal>
        <signal name = "N$37">
          <via x = "-24.130000000000003" y = "3.8099999999999996" extent = "1-16" drill = "1.2" diameter = "1.9304" />
        </signal>
        <signal name = "N$38">
          <via x = "24.130000000000003" y = "3.8099999999999996" extent = "1-16" drill = "1.2" diameter = "1.9304" />
        </signal>
        <signal name = "N$39">
          <via x = "-24.130000000000003" y = "1.2699999999999996" extent = "1-16" drill = "1.2" diameter = "1.9304" />
        </signal>
        <signal name = "N$40">
          <via x = "24.130000000000003" y = "1.2699999999999996" extent = "1-16" drill = "1.2" diameter = "1.9304" />
        </signal>
        <signal name = "N$41">
          <via x = "-24.130000000000003" y = "-1.2700000000000005" extent = "1-16" drill = "1.2" diameter = "1.9304" />
        </signal>
        <signal name = "N$42">
          <via x = "24.130000000000003" y = "-1.2700000000000005" extent = "1-16" drill = "1.2" diameter = "1.9304" />
        </signal>
        <signal name = "N$43">
          <via x = "-24.130000000000003" y = "-3.8100000000000005" extent = "1-16" drill = "1.2" diameter = "1.9304" />
        </signal>
        <signal name = "N$44">
          <via x = "24.130000000000003" y = "-3.8100000000000005" extent = "1-16" drill = "1.2" diameter = "1.9304" />
        </signal>
        <signal name = "N$45">
          <via x = "-24.130000000000003" y = "-6.35" extent = "1-16" drill = "1.2" diameter = "1.9304" />
        </signal>
        <signal name = "N$46">
          <via x = "24.130000000000003" y = "-6.35" extent = "1-16" drill = "1.2" diameter = "1.9304" />
        </signal>
      </signals>
      <plain>
        <rectangle x1 = "-27" y1 = "-16" x2 = "27" y2 = "16" layer = "30" />
        <wire x1 = "27" y1 = "12" x2 = "23" y2 = "16" width = "0.127" layer = "20" curve = "90" />
        <wire x1 = "23" y1 = "16" x2 = "-23" y2 = "16" width = "0.127" layer = "20" />
        <wire x1 = "23" y1 = "-16" x2 = "27" y2 = "-12" width = "0.127" layer = "20" curve = "90" />
        <wire x1 = "27" y1 = "-12" x2 = "27" y2 = "12" width = "0.127" layer = "20" />
        <wire x1 = "-23" y1 = "16" x2 = "-27" y2 = "12" width = "0.127" layer = "20" curve = "90" />
        <wire x1 = "23" y1 = "-16" x2 = "-23" y2 = "-16" width = "0.127" layer = "20" />
        <wire x1 = "-27" y1 = "-12" x2 = "-23" y2 = "-16" width = "0.127" layer = "20" curve = "90" />
        <wire x1 = "-27" y1 = "-12" x2 = "-27" y2 = "12" width = "0.127" layer = "20" />
        <rectangle x1 = "-20" y1 = "15.5" x2 = "20" y2 = "10.5" layer = "21" />
        <text x = "-18" y = "-15" size = "2" layer = "21">Brunswick Hackerspace</text>
        <polygon layer = "21" width = "0.4064">
          <vertex x = "-18.62" y = "10" />
          <vertex x = "0" y = "1.4600000000000009" />
          <vertex x = "18.62" y = "10" />
          <vertex x = "18.62" y = "-4.139999999999999" />
          <vertex x = "0" y = "-12.68" />
          <vertex x = "-18.62" y = "-4.139999999999999" />
        </polygon>
      </plain>
    </board>
    <grid distance = "0.005" unitdist = "inch" unit = "inch" altdistance = "0.001" altunitdist = "inch" altunit = "inch" style = "lines" multiple = "1" display = "no" />
    <layers>
      <layer number = "1" name = "Top" color = "4" fill = "1" visible = "yes" active = "yes" />
      <layer number = "2" name = "Route2" color = "1" fill = "3" visible = "no" active = "yes" />
      <layer number = "3" name = "Route3" color = "4" fill = "3" visible = "no" active = "yes" />
      <layer number = "4" name = "Route4" color = "1" fill = "4" visible = "no" active = "yes" />
      <layer number = "5" name = "Route5" color = "4" fill = "4" visible = "no" active = "yes" />
      <layer number = "6" name = "Route6" color = "1" fill = "8" visible = "no" active = "yes" />
      <layer number = "7" name = "Route7" color = "4" fill = "8" visible = "no" active = "yes" />
      <layer number = "8" name = "Route8" color = "1" fill = "2" visible = "no" active = "yes" />
      <layer number = "9" name = "Route9" color = "4" fill = "2" visible = "no" active = "yes" />
      <layer number = "10" name = "Route10" color = "1" fill = "7" visible = "no" active = "yes" />
      <layer number = "11" name = "Route11" color = "4" fill = "7" visible = "no" active = "yes" />
      <layer number = "12" name = "Route12" color = "1" fill = "5" visible = "no" active = "yes" />
      <layer number = "13" name = "Route13" color = "4" fill = "5" visible = "no" active = "yes" />
      <layer number = "14" name = "Route14" color = "1" fill = "6" visible = "no" active = "yes" />
      <layer number = "15" name = "Route15" color = "4" fill = "6" visible = "no" active = "yes" />
      <layer number = "16" name = "Bottom" color = "1" fill = "1" visible = "yes" active = "yes" />
      <layer number = "17" name = "Pads" color = "2" fill = "1" visible = "yes" active = "yes" />
      <layer number = "18" name = "Vias" color = "2" fill = "1" visible = "yes" active = "yes" />
      <layer number = "19" name = "Unrouted" color = "6" fill = "1" visible = "yes" active = "yes" />
      <layer number = "20" name = "Dimension" color = "15" fill = "1" visible = "yes" active = "yes" />
      <layer number = "21" name = "tPlace" color = "7" fill = "1" visible = "yes" active = "yes" />
      <layer number = "22" name = "bPlace" color = "7" fill = "1" visible = "yes" active = "yes" />
      <layer number = "23" name = "tOrigins" color = "15" fill = "1" visible = "yes" active = "yes" />
      <layer number = "24" name = "bOrigins" color = "15" fill = "1" visible = "yes" active = "yes" />
      <layer number = "25" name = "tNames" color = "7" fill = "1" visible = "yes" active = "yes" />
      <layer number = "26" name = "bNames" color = "7" fill = "1" visible = "yes" active = "yes" />
      <layer number = "27" name = "tValues" color = "7" fill = "1" visible = "yes" active = "yes" />
      <layer number = "28" name = "bValues" color = "7" fill = "1" visible = "yes" active = "yes" />
      <layer number = "29" name = "tStop" color = "7" fill = "3" visible = "no" active = "yes" />
      <layer number = "30" name = "bStop" color = "7" fill = "6" visible = "no" active = "yes" />
      <layer number = "31" name = "tCream" color = "7" fill = "4" visible = "no" active = "yes" />
      <layer number = "32" name = "bCream" color = "7" fill = "5" visible = "no" active = "yes" />
      <layer number = "33" name = "tFinish" color = "6" fill = "3" visible = "no" active = "yes" />
      <layer number = "34" name = "bFinish" color = "6" fill = "6" visible = "no" active = "yes" />
      <layer number = "35" name = "tGlue" color = "7" fill = "4" visible = "no" active = "yes" />
      <layer number = "36" name = "bGlue" color = "7" fill = "5" visible = "no" active = "yes" />
      <layer number = "37" name = "tTest" color = "7" fill = "1" visible = "no" active = "yes" />
      <layer number = "38" name = "bTest" color = "7" fill = "1" visible = "no" active = "yes" />
      <layer number = "39" name = "tKeepout" color = "4" fill = "11" visible = "yes" active = "yes" />
      <layer number = "40" name = "bKeepout" color = "1" fill = "11" visible = "yes" active = "yes" />
      <layer number = "41" name = "tRestrict" color = "4" fill = "10" visible = "yes" active = "yes" />
      <layer number = "42" name = "bRestrict" color = "1" fill = "10" visible = "yes" active = "yes" />
      <layer number = "43" name = "vRestrict" color = "2" fill = "10" visible = "yes" active = "yes" />
      <layer number = "44" name = "Drills" color = "7" fill = "1" visible = "no" active = "yes" />
      <layer number = "45" name = "Holes" color = "7" fill = "1" visible = "yes" active = "yes" />
      <layer number = "46" name = "Milling" color = "3" fill = "1" visible = "no" active = "yes" />
      <layer number = "47" name = "Measures" color = "7" fill = "1" visible = "no" active = "yes" />
      <layer number = "48" name = "Document" color = "7" fill = "1" visible = "yes" active = "yes" />
      <layer number = "49" name = "Reference" color = "7" fill = "1" visible = "yes" active = "yes" />
      <layer number = "50" name = "dxf" color = "7" fill = "1" visible = "no" active = "yes" />
      <layer number = "51" name = "tDocu" color = "7" fill = "1" visible = "yes" active = "yes" />
      <layer number = "52" name = "bDocu" color = "7" fill = "1" visible = "yes" active = "yes" />
      <layer number = "53" name = "tGND_GNDA" color = "7" fill = "9" visible = "no" active = "no" />
      <layer number = "54" name = "bGND_GNDA" color = "1" fill = "9" visible = "no" active = "no" />
      <layer number = "56" name = "wert" color = "7" fill = "1" visible = "yes" active = "yes" />
      <layer number = "91" name = "Nets" color = "2" fill = "1" visible = "no" active = "no" />
      <layer number = "92" name = "Busses" color = "1" fill = "1" visible = "no" active = "no" />
      <layer number = "93" name = "Pins" color = "2" fill = "1" visible = "no" active = "no" />
      <layer number = "94" name = "Symbols" color = "4" fill = "1" visible = "no" active = "no" />
      <layer number = "95" name = "Names" color = "7" fill = "1" visible = "no" active = "no" />
      <layer number = "96" name = "Values" color = "7" fill = "1" visible = "no" active = "no" />
      <layer number = "97" name = "Info" color = "7" fill = "1" visible = "no" active = "no" />
      <layer number = "98" name = "Guide" color = "6" fill = "1" visible = "no" active = "no" />
      <layer number = "100" name = "Muster" color = "7" fill = "1" visible = "no" active = "no" />
      <layer number = "101" name = "Patch_Top" color = "12" fill = "4" visible = "yes" active = "yes" />
      <layer number = "102" name = "Vscore" color = "7" fill = "1" visible = "yes" active = "yes" />
      <layer number = "103" name = "fp3" color = "7" fill = "1" visible = "no" active = "yes" />
      <layer number = "104" name = "Name" color = "7" fill = "1" visible = "yes" active = "yes" />
      <layer number = "105" name = "Beschreib" color = "9" fill = "1" visible = "yes" active = "yes" />
      <layer number = "106" name = "BGA-Top" color = "4" fill = "1" visible = "yes" active = "yes" />
      <layer number = "107" name = "BD-Top" color = "5" fill = "1" visible = "yes" active = "yes" />
      <layer number = "108" name = "fp8" color = "7" fill = "1" visible = "no" active = "yes" />
      <layer number = "109" name = "fp9" color = "7" fill = "1" visible = "no" active = "yes" />
      <layer number = "110" name = "fp0" color = "7" fill = "1" visible = "no" active = "yes" />
      <layer number = "111" name = "LPC17xx" color = "7" fill = "1" visible = "yes" active = "yes" />
      <layer number = "112" name = "tPlaceRed" color = "12" fill = "1" visible = "yes" active = "yes" />
      <layer number = "113" name = "tPlaceBlue" color = "9" fill = "1" visible = "yes" active = "yes" />
      <layer number = "116" name = "Patch_BOT" color = "9" fill = "4" visible = "yes" active = "yes" />
      <layer number = "121" name = "_tsilk" color = "7" fill = "1" visible = "yes" active = "yes" />
      <layer number = "122" name = "_bsilk" color = "7" fill = "1" visible = "yes" active = "yes" />
      <layer number = "123" name = "tTestmark" color = "7" fill = "1" visible = "no" active = "yes" />
      <layer number = "124" name = "bTestmark" color = "7" fill = "1" visible = "no" active = "yes" />
      <layer number = "125" name = "_tNames" color = "7" fill = "1" visible = "yes" active = "yes" />
      <layer number = "126" name = "_bNames" color = "7" fill = "1" visible = "yes" active = "yes" />
      <layer number = "127" name = "_tValues" color = "7" fill = "1" visible = "yes" active = "yes" />
      <layer number = "128" name = "_bValues" color = "7" fill = "1" visible = "yes" active = "yes" />
      <layer number = "131" name = "tAdjust" color = "7" fill = "1" visible = "no" active = "yes" />
      <layer number = "132" name = "bAdjust" color = "7" fill = "1" visible = "no" active = "yes" />
      <layer number = "144" name = "Drill_legend" color = "7" fill = "1" visible = "yes" active = "yes" />
      <layer number = "151" name = "HeatSink" color = "7" fill = "1" visible = "yes" active = "yes" />
      <layer number = "152" name = "_bDocu" color = "7" fill = "1" visible = "yes" active = "yes" />
      <layer number = "199" name = "Contour" color = "7" fill = "1" visible = "yes" active = "yes" />
      <layer number = "200" name = "200bmp" color = "1" fill = "10" visible = "yes" active = "yes" />
      <layer number = "201" name = "201bmp" color = "2" fill = "1" visible = "no" active = "no" />
      <layer number = "202" name = "202bmp" color = "3" fill = "1" visible = "no" active = "no" />
      <layer number = "203" name = "203bmp" color = "4" fill = "10" visible = "yes" active = "yes" />
      <layer number = "204" name = "204bmp" color = "5" fill = "10" visible = "yes" active = "yes" />
      <layer number = "205" name = "205bmp" color = "6" fill = "10" visible = "yes" active = "yes" />
      <layer number = "206" name = "206bmp" color = "7" fill = "10" visible = "yes" active = "yes" />
      <layer number = "207" name = "207bmp" color = "8" fill = "10" visible = "yes" active = "yes" />
      <layer number = "208" name = "208bmp" color = "9" fill = "10" visible = "yes" active = "yes" />
      <layer number = "209" name = "209bmp" color = "7" fill = "1" visible = "no" active = "yes" />
      <layer number = "210" name = "210bmp" color = "7" fill = "1" visible = "no" active = "yes" />
      <layer number = "211" name = "211bmp" color = "7" fill = "1" visible = "yes" active = "yes" />
      <layer number = "212" name = "212bmp" color = "7" fill = "1" visible = "yes" active = "yes" />
      <layer number = "213" name = "213bmp" color = "7" fill = "1" visible = "yes" active = "yes" />
      <layer number = "214" name = "214bmp" color = "7" fill = "1" visible = "yes" active = "yes" />
      <layer number = "215" name = "215bmp" color = "7" fill = "1" visible = "yes" active = "yes" />
      <layer number = "216" name = "216bmp" color = "7" fill = "1" visible = "yes" active = "yes" />
      <layer number = "217" name = "217bmp" color = "18" fill = "1" visible = "no" active = "no" />
      <layer number = "218" name = "218bmp" color = "19" fill = "1" visible = "no" active = "no" />
      <layer number = "219" name = "219bmp" color = "20" fill = "1" visible = "no" active = "no" />
      <layer number = "220" name = "220bmp" color = "21" fill = "1" visible = "no" active = "no" />
      <layer number = "221" name = "221bmp" color = "22" fill = "1" visible = "no" active = "no" />
      <layer number = "222" name = "222bmp" color = "23" fill = "1" visible = "no" active = "no" />
      <layer number = "223" name = "223bmp" color = "24" fill = "1" visible = "no" active = "no" />
      <layer number = "224" name = "224bmp" color = "25" fill = "1" visible = "no" active = "no" />
      <layer number = "248" name = "Housing" color = "7" fill = "1" visible = "yes" active = "yes" />
      <layer number = "249" name = "Edge" color = "7" fill = "1" visible = "yes" active = "yes" />
      <layer number = "250" name = "Descript" color = "7" fill = "1" visible = "no" active = "no" />
      <layer number = "251" name = "SMDround" color = "7" fill = "1" visible = "no" active = "no" />
      <layer number = "254" name = "cooling" color = "7" fill = "1" visible = "yes" active = "yes" />
    </layers>
  </drawing>
</eagle>
